{
  "headers": {
    "X_API_KEY": "x-api-key",
    "X_DEVICE_TYPE": "x-device-type",
    "X_DEVICE_OS_VERSION": "x-device-os-version",
    "X_DEVICE_MODEL": "x-device-model",
    "X_APP_VERSION": "x-app-version",
    "X_DEVICE_UTC_OFFSET": "x-device-utc-offset",
    "X_DEVICE_LANG": "x-device-lang",
    "X_DEVICE_NOTIFICATION_CODE": "x-device-notification-code",
    "CONTENT_TYPE": "content-type"
  },
  "app": {
    "port": 8080,
    "base_url": "/api/",
    "name": "ultravoucher"
  },
  "fluentd": {
    "is_enabled": false,
    "host": "127.0.0.1",
    "port": 24224,
    "tag": "mdm_ultravoucher"
  },
  "database": {
    "master": {
      "client": "mysql",
      "connection": {
        "multipleStatements": true,
        "database": "mdm",
        "user": "root",
        "password": "",
        "port": 3306,
      },
      "pool": {
        "min": 2,
        "max": 10
      },
      "migrations": {
        "directory": "src/data/migrations"
      },
      "seeds": {
        "directory": "src/data/seeders"
      }
    }
  }
}

